{
    "clientes": [{
            "id": 0,
            "nombre": "Agustina",
            "apellido": "Meschini",
            "edad": "19",
            "productos": [{
                "url": "localhost/producto/71388",
                "name": "labial",
                "precio": "$590"
            }],
            "monto final": "$590"

        },
        {
            "id": 1,
            "nombre": "Lucía",
            "apellido": "López",
            "edad": "32",
            "productos": [{
                "url": "localhost/producto/81949",
                "name": "gloss",
                "precio": "$570"
            }],
            "monto final": "$570"
        }
    ]
}